{
  "version": 1,
  "stdout": [
    [
      0.881822,
      "\u001b[1m\u001b[7m%\u001b[27m\u001b[1m\u001b[0m                                                                                                                                                                                                                                            \r \r"
    ],
    [
      0.00022,
      "\u001b]2;christian@christian-VirtualBox: ~/bluebird\u0007\u001b]1;~/bluebird\u0007"
    ],
    [
      0.048942,
      "\r\u001b[0m\u001b[27m\u001b[24m\u001b[J\u001b[39m\u001b[0m\u001b[49m\u001b[40m\u001b[39m christian@christian-VirtualBox \u001b[44m\u001b[30m\u001b[30m ~/bluebird \u001b[49m\u001b[34m\u001b[39m \u001b[K"
    ],
    [
      0.000449,
      "\u001b[?1h\u001b=\u001b[?2004h"
    ],
    [
      0.453795,
      "l\u001b[36ms -la\u001b[39m\b\b\b\b\b"
    ],
    [
      0.065191,
      "\bl\u001b[39ms"
    ],
    [
      0.051134,
      "\u001b[39m "
    ],
    [
      0.156202,
      "\u001b[39m-"
    ],
    [
      0.068787,
      "\u001b[39ml"
    ],
    [
      0.074534,
      "\u001b[39ma"
    ],
    [
      0.159406,
      "\u001b[?1l\u001b>\u001b[?2004l\r\r\n"
    ],
    [
      0.00132,
      "\u001b]2;ls --color=tty -la\u0007"
    ],
    [
      0.004049,
      "\u001b]1;ls\u0007"
    ],
    [
      0.005779,
      "total 84"
    ],
    [
      0.010756,
      "\r\n"
    ],
    [
      0.005069,
      "drwxrwxr-x  3 christian christian  4096 Jan 22 21:03 \u001b[0m\u001b[01;34m.\u001b[0m"
    ],
    [
      0.010922,
      "\r\ndrwxr-xr-x 55 christian christian 61440 Jan 22 21:07 \u001b[01;34m..\u001b[0m\r\n-rw-rw-r--  1 christian christian    27 Jan 22 21:06 async.txt"
    ],
    [
      0.000258,
      "\r\n-rw-rw-r--  1 christian christian   242 Jan 22 21:06 index.js\r\ndrwxrwxr-x  3 christian christian  4096 Jan 22 21:03 \u001b[01;34mnode_modules\u001b[0m\r\n"
    ],
    [
      7.7e-05,
      "-rw-rw-r--  1 christian christian   297 Jan 22 21:03 package.json\r\n"
    ],
    [
      0.000413,
      "\u001b[1m\u001b[7m%\u001b[27m\u001b[1m\u001b[0m                                                                                                                                                                                                                                            \r \r"
    ],
    [
      0.000154,
      "\u001b]2;christian@christian-VirtualBox: ~/bluebird\u0007\u001b]1;~/bluebird\u0007"
    ],
    [
      0.061168,
      "\r\u001b[0m\u001b[27m\u001b[24m\u001b[J\u001b[39m\u001b[0m\u001b[49m\u001b[40m\u001b[39m christian@christian-VirtualBox \u001b[44m\u001b[30m\u001b[30m ~/bluebird \u001b[49m\u001b[34m\u001b[39m \u001b[K\u001b[?1h\u001b=\u001b[?2004h"
    ],
    [
      0.981553,
      "c\u001b[36md bluebird\u001b[39m\u001b[10D"
    ],
    [
      0.147448,
      "\bc\u001b[39ma\u001b[36mt\u001b[36m \u001b[36mp\u001b[36ma\u001b[36mc\u001b[36mk\u001b[36ma\u001b[36mg\u001b[36me\u001b[36m.json\u001b[39m\u001b[14D"
    ],
    [
      0.060237,
      "\u001b[39mt"
    ],
    [
      0.235824,
      "\u001b[39m "
    ],
    [
      0.424544,
      "\u001b[39mi\u001b[36mn\u001b[36md\u001b[36me\u001b[36mx\u001b[36m.\u001b[36mj\u001b[36ms\u001b[39m\u001b[39m \u001b[39m \u001b[39m \u001b[39m \u001b[11D"
    ],
    [
      0.029278,
      "\u001b[39mn"
    ],
    [
      0.115501,
      "\u001b[39md\u001b[39me\u001b[39mx\u001b[39m.\u001b[39mj\u001b[39ms\u001b[1m \u001b[0m"
    ],
    [
      0.59279,
      "\b\u001b[0m \b\u001b[?1l\u001b>\u001b[?2004l\r\r\n"
    ],
    [
      0.003707,
      "\u001b]2;cat index.js\u0007\u001b]1;cat\u0007"
    ],
    [
      0.003473,
      "const fs = require('fs')"
    ],
    [
      0.00019,
      "\r\n"
    ],
    [
      0.002722,
      "const bluebird = require('bluebird')"
    ],
    [
      0.002185,
      "\r\n"
    ],
    [
      0.026197,
      "\r\n"
    ],
    [
      0.000291,
      "let readFileAsPromise = bluebird.promisify(fs.readFile)"
    ],
    [
      0.000133,
      "\r\n"
    ],
    [
      9.4e-05,
      "\r\n"
    ],
    [
      0.000193,
      "readFileAsPromise('async.txt')"
    ],
    [
      0.000138,
      "\r\n"
    ],
    [
      0.0001,
      ".then((data) => {"
    ],
    [
      9e-05,
      "\r\n"
    ],
    [
      9.1e-05,
      "  console.log(data.toString())"
    ],
    [
      8.9e-05,
      "\r\n"
    ],
    [
      0.000124,
      "}).catch((err) => {"
    ],
    [
      0.000215,
      "\r\n"
    ],
    [
      9.5e-05,
      "  console.log(err)"
    ],
    [
      9e-05,
      "\r\n"
    ],
    [
      0.000127,
      "})"
    ],
    [
      9.3e-05,
      "\r\n"
    ],
    [
      0.000682,
      "\u001b[1m\u001b[7m%\u001b[27m\u001b[1m\u001b[0m                                                                                                                                                                                                                                            \r \r"
    ],
    [
      0.00026,
      "\u001b]2;christian@christian-VirtualBox: ~/bluebird\u0007\u001b]1;~/bluebird\u0007"
    ],
    [
      0.042158,
      "\r\u001b[0m\u001b[27m\u001b[24m\u001b[J\u001b[39m\u001b[0m\u001b[49m\u001b[40m\u001b[39m christian@christian-VirtualBox \u001b[44m\u001b[30m\u001b[30m ~/bluebird \u001b[49m\u001b[34m\u001b[39m \u001b[K"
    ],
    [
      5.4e-05,
      "\u001b[?1h\u001b=\u001b[?2004h"
    ],
    [
      3.67327,
      "c\u001b[36mat index.js\u001b[39m\u001b[11D"
    ],
    [
      0.198288,
      "\bc\u001b[39ma"
    ],
    [
      0.094446,
      "\u001b[39mt"
    ],
    [
      0.241353,
      "\u001b[39m "
    ],
    [
      0.31115,
      "\u001b[39ma\u001b[36ms\u001b[36my\u001b[36mn\u001b[36mc\u001b[36m.\u001b[36mt\u001b[36mx\u001b[36mt\u001b[39m\u001b[8D"
    ],
    [
      0.065664,
      "\u001b[39ms"
    ],
    [
      0.230318,
      "\u001b[39my\u001b[39mn\u001b[39mc\u001b[39m.\u001b[39mt\u001b[39mx\u001b[39mt\u001b[1m \u001b[0m"
    ],
    [
      0.355656,
      "\b\u001b[0m \b\u001b[?1l\u001b>"
    ],
    [
      8e-05,
      "\u001b[?2004l\r\r\n"
    ],
    [
      0.007528,
      "\u001b]2;cat async.txt\u0007\u001b]1;cat\u0007"
    ],
    [
      0.005073,
      "Lorem ipsum dolor sit amet"
    ],
    [
      0.02268,
      "\r\n"
    ],
    [
      0.000573,
      "\u001b[1m\u001b[7m%\u001b[27m\u001b[1m\u001b[0m                                                                                                                                                                                                                                            \r \r"
    ],
    [
      0.00015,
      "\u001b]2;christian@christian-VirtualBox: ~/bluebird\u0007\u001b]1;~/bluebird\u0007"
    ],
    [
      0.062539,
      "\r\u001b[0m\u001b[27m\u001b[24m\u001b[J\u001b[39m\u001b[0m\u001b[49m\u001b[40m\u001b[39m christian@christian-VirtualBox \u001b[44m\u001b[30m\u001b[30m ~/bluebird \u001b[49m\u001b[34m\u001b[39m \u001b[K\u001b[?1h\u001b=\u001b[?2004h"
    ],
    [
      0.917892,
      "n\u001b[36mode index.js\u001b[39m\u001b[12D"
    ],
    [
      0.078775,
      "\bn\u001b[39mo"
    ],
    [
      0.035144,
      "\u001b[39md"
    ],
    [
      0.289095,
      "\u001b[39me"
    ],
    [
      0.235414,
      "\u001b[39m "
    ],
    [
      0.119081,
      "\u001b[39mi"
    ],
    [
      0.04235,
      "\u001b[39mn"
    ],
    [
      0.103111,
      "\u001b[39md\u001b[39me\u001b[39mx\u001b[39m.\u001b[39mj\u001b[39ms\u001b[1m \u001b[0m\u001b[36m| bunyan\u001b[39m\u001b[8D"
    ],
    [
      0.574599,
      "\b\u001b[0m \u001b[39m \u001b[39m \u001b[39m \u001b[39m \u001b[39m \u001b[39m \u001b[39m \u001b[39m \u001b[9D\u001b[?1l\u001b>"
    ],
    [
      0.000118,
      "\u001b[?2004l\r\r\n"
    ],
    [
      0.005054,
      "\u001b]2;node index.js\u0007\u001b]1;node\u0007"
    ],
    [
      0.160503,
      "Lorem ipsum dolor sit amet\r\n\r\n"
    ],
    [
      0.003525,
      "\u001b[1m\u001b[7m%\u001b[27m\u001b[1m\u001b[0m                                                                                                                                                                                                                                            \r \r"
    ],
    [
      8.5e-05,
      "\u001b]2;christian@christian-VirtualBox: ~/bluebird\u0007\u001b]1;~/bluebird\u0007"
    ],
    [
      0.043054,
      "\r\u001b[0m\u001b[27m\u001b[24m\u001b[J\u001b[39m\u001b[0m\u001b[49m\u001b[40m\u001b[39m christian@christian-VirtualBox \u001b[44m\u001b[30m\u001b[30m ~/bluebird \u001b[49m\u001b[34m\u001b[39m \u001b[K"
    ],
    [
      3.7e-05,
      "\u001b[?1h\u001b=\u001b[?2004h"
    ],
    [
      1.922345,
      "\u001b[?2004l\r\r\n"
    ]
  ],
  "height": 60,
  "title": "Bluebird",
  "width": 237,
  "command": null,
  "env": {
    "TERM": "xterm",
    "SHELL": "/usr/bin/zsh"
  },
  "duration": 14.571002
}