{
  "width": 237,
  "title": "Arrow functions",
  "height": 60,
  "duration": 20.276124,
  "version": 1,
  "env": {
    "TERM": "xterm",
    "SHELL": "/usr/bin/zsh"
  },
  "command": null,
  "stdout": [
    [
      0.926675,
      "\u001b[1m\u001b[7m%\u001b[27m\u001b[1m\u001b[0m                                                                                                                                                                                                                                            \r \r"
    ],
    [
      0.000214,
      "\u001b]2;christian@christian-VirtualBox: ~\u0007\u001b]1;~\u0007"
    ],
    [
      0.059429,
      "\r\u001b[0m\u001b[27m\u001b[24m\u001b[J\u001b[39m\u001b[0m\u001b[49m\u001b[40m\u001b[39m christian@christian-VirtualBox \u001b[44m\u001b[30m\u001b[30m ~ \u001b[49m\u001b[34m\u001b[39m \u001b[K"
    ],
    [
      9.9e-05,
      "\u001b[?1h\u001b="
    ],
    [
      5.7e-05,
      "\u001b[?2004h"
    ],
    [
      1.151189,
      "n\u001b[36mode\u001b[39m\b\b\b"
    ],
    [
      0.0971,
      "\bn\u001b[39mo"
    ],
    [
      0.072846,
      "\u001b[39md"
    ],
    [
      0.133959,
      "\u001b[39me"
    ],
    [
      0.164998,
      "\u001b[?1l\u001b>"
    ],
    [
      0.00026,
      "\u001b[?2004l"
    ],
    [
      0.000131,
      "\r"
    ],
    [
      0.000154,
      "\r\n"
    ],
    [
      0.003118,
      "\u001b]2;node\u0007"
    ],
    [
      0.000262,
      "\u001b]1;node\u0007"
    ],
    [
      0.123213,
      "\u001b[1G"
    ],
    [
      0.0011,
      "\u001b[0J"
    ],
    [
      0.000252,
      "> "
    ],
    [
      0.000206,
      "\u001b[3G"
    ],
    [
      0.355421,
      "c"
    ],
    [
      0.105884,
      "o"
    ],
    [
      0.023108,
      "n"
    ],
    [
      0.121144,
      "s"
    ],
    [
      0.074886,
      "t"
    ],
    [
      0.159193,
      " "
    ],
    [
      0.128034,
      "a"
    ],
    [
      0.159674,
      " "
    ],
    [
      0.167622,
      "="
    ],
    [
      0.007479,
      " "
    ],
    [
      0.424382,
      "1"
    ],
    [
      0.458461,
      "\r"
    ],
    [
      0.001708,
      "\r\n"
    ],
    [
      0.037311,
      "\u001b[90mundefined\u001b[39m"
    ],
    [
      0.000136,
      "\r\n"
    ],
    [
      0.000504,
      "\u001b[1G"
    ],
    [
      0.000799,
      "\u001b[0J"
    ],
    [
      0.000546,
      "> "
    ],
    [
      0.000507,
      "\u001b[3G"
    ],
    [
      0.677913,
      "l"
    ],
    [
      0.048454,
      "e"
    ],
    [
      0.093299,
      "t"
    ],
    [
      0.121411,
      " "
    ],
    [
      0.376541,
      "b"
    ],
    [
      0.200841,
      " "
    ],
    [
      0.239901,
      "="
    ],
    [
      0.143912,
      " "
    ],
    [
      0.415751,
      "1"
    ],
    [
      0.248681,
      "\r\r\n"
    ],
    [
      0.002493,
      "\u001b[90mundefined\u001b[39m\r\n\u001b[1G\u001b[0J> \u001b[3G"
    ],
    [
      0.854264,
      "l"
    ],
    [
      0.054851,
      "e"
    ],
    [
      0.095831,
      "t"
    ],
    [
      0.136163,
      " "
    ],
    [
      0.128275,
      "f"
    ],
    [
      0.222345,
      " "
    ],
    [
      0.242687,
      "="
    ],
    [
      0.17614,
      " "
    ],
    [
      0.45568,
      "c"
    ],
    [
      0.29708,
      " "
    ],
    [
      0.191128,
      "="
    ],
    [
      0.102901,
      ">"
    ],
    [
      0.617212,
      " "
    ],
    [
      0.940128,
      "a"
    ],
    [
      0.340737,
      " "
    ],
    [
      0.231095,
      "+"
    ],
    [
      0.120034,
      " "
    ],
    [
      1.113152,
      "b"
    ],
    [
      0.238537,
      " "
    ],
    [
      0.233313,
      "+"
    ],
    [
      0.078959,
      " "
    ],
    [
      0.161859,
      "c"
    ],
    [
      0.436725,
      "\r"
    ],
    [
      0.000993,
      "\r\n"
    ],
    [
      0.001641,
      "\u001b[90mundefined\u001b[39m\r\n"
    ],
    [
      0.00091,
      "\u001b[1G\u001b[0J> \u001b[3G"
    ],
    [
      0.960984,
      "f"
    ],
    [
      0.270423,
      "("
    ],
    [
      0.176905,
      "1"
    ],
    [
      0.37613,
      ")"
    ],
    [
      0.358946,
      "\r"
    ],
    [
      6.6e-05,
      "\r\n"
    ],
    [
      0.00145,
      "\u001b[33m3\u001b[39m"
    ],
    [
      8e-05,
      "\r\n"
    ],
    [
      0.000143,
      "\u001b[1G"
    ],
    [
      8.5e-05,
      "\u001b[0J"
    ],
    [
      0.000232,
      "> "
    ],
    [
      0.000114,
      "\u001b[3G"
    ],
    [
      1.184693,
      "\r"
    ],
    [
      0.000124,
      "\r\n"
    ],
    [
      0.000481,
      "(To exit, press ^C again or type .exit)"
    ],
    [
      0.000117,
      "\r\n"
    ],
    [
      0.000309,
      "\u001b[1G"
    ],
    [
      0.000209,
      "\u001b[0J"
    ],
    [
      0.00017,
      "> "
    ],
    [
      0.000191,
      "\u001b[3G"
    ],
    [
      0.718203,
      "\r"
    ],
    [
      0.000131,
      "\r\n"
    ],
    [
      0.007817,
      "\u001b[1m\u001b[7m%\u001b[27m\u001b[1m\u001b[0m                                                                                                                                                                                                                                            \r \r"
    ],
    [
      0.000153,
      "\u001b]2;christian@christian-VirtualBox: ~\u0007\u001b]1;~\u0007"
    ],
    [
      0.094042,
      "\r\u001b[0m\u001b[27m\u001b[24m\u001b[J\u001b[39m\u001b[0m\u001b[49m\u001b[40m\u001b[39m christian@christian-VirtualBox \u001b[44m\u001b[30m\u001b[30m ~ \u001b[49m\u001b[34m\u001b[39m "
    ],
    [
      6.2e-05,
      "\u001b[K"
    ],
    [
      0.000114,
      "\u001b[?1h\u001b="
    ],
    [
      8.3e-05,
      "\u001b[?2004h"
    ],
    [
      1.089105,
      "\u001b[?2004l\r\r\n"
    ]
  ]
}