{
  "height": 53,
  "version": 1,
  "duration": 11.170704,
  "title": "Event loop blocking",
  "env": {
    "TERM": "xterm",
    "SHELL": "/usr/bin/zsh"
  },
  "width": 237,
  "stdout": [
    [
      0.797727,
      "\u001b[1m\u001b[7m%\u001b[27m\u001b[1m\u001b[0m                                                                                                                                                                                                                                            \r \r"
    ],
    [
      0.000121,
      "\u001b]2;christian@christian-VirtualBox: ~/nodejs-meetup/presentation/examples/event-loop-blocking\u0007\u001b]1;..loop-blocking\u0007"
    ],
    [
      0.080329,
      "\r\u001b[0m\u001b[27m\u001b[24m\u001b[J\u001b[39m\u001b[0m\u001b[49m\u001b[40m\u001b[39m christian@christian-VirtualBox \u001b[44m\u001b[30m\u001b[30m ~/nodejs-meetup/presentation/examples/event-loop-blocking \u001b[42m\u001b[34m\u001b[30m  christian \u001b[49m\u001b[32m\u001b[39m "
    ],
    [
      0.000139,
      "\u001b[K"
    ],
    [
      0.000169,
      "\u001b[?1h\u001b="
    ],
    [
      1.149287,
      "l\u001b[36ms- al\u001b[39m\b\b\b\b\b"
    ],
    [
      0.109124,
      "\bl\u001b[39ml\u001b[39m \u001b[39m \u001b[39m \u001b[39m \b\b\b\b"
    ],
    [
      0.419702,
      "\u001b[?1l\u001b>"
    ],
    [
      0.0003,
      "\r"
    ],
    [
      0.000112,
      "\r\n"
    ],
    [
      0.001588,
      "\u001b]2;ls --color=tty -lh\u0007"
    ],
    [
      0.000149,
      "\u001b]1;ll\u0007"
    ],
    [
      0.008883,
      "total 4,0K"
    ],
    [
      0.000393,
      "\r\n"
    ],
    [
      0.000269,
      "-rw-rw-r-- 1 christian christian 401 Jan 10 21:42 index.js"
    ],
    [
      0.00013,
      "\r\n"
    ],
    [
      0.000663,
      "\u001b[1m\u001b[7m%\u001b[27m\u001b[1m\u001b[0m                                                                                                                                                                                                                                            \r \r"
    ],
    [
      0.000474,
      "\u001b]2;christian@christian-VirtualBox: ~/nodejs-meetup/presentation/examples/event-loop-blocking\u0007"
    ],
    [
      0.000185,
      "\u001b]1;..loop-blocking\u0007"
    ],
    [
      0.098428,
      "\r\u001b[0m\u001b[27m\u001b[24m\u001b[J\u001b[39m\u001b[0m\u001b[49m\u001b[40m\u001b[39m christian@christian-VirtualBox \u001b[44m\u001b[30m\u001b[30m ~/nodejs-meetup/presentation/examples/event-loop-blocking \u001b[42m\u001b[34m\u001b[30m  christian \u001b[49m\u001b[32m\u001b[39m "
    ],
    [
      5.4e-05,
      "\u001b[K"
    ],
    [
      0.000104,
      "\u001b[?1h\u001b="
    ],
    [
      0.582241,
      "c\u001b[36mat index.js\u001b[39m\u001b[11D"
    ],
    [
      0.20579,
      "\bc\u001b[39ma"
    ],
    [
      0.069766,
      "\u001b[39mt"
    ],
    [
      0.2117,
      "\u001b[39m "
    ],
    [
      0.423166,
      "\u001b[39mi"
    ],
    [
      0.066618,
      "\u001b[39mn"
    ],
    [
      0.103224,
      "\u001b[39md\u001b[39me\u001b[39mx\u001b[39m.\u001b[39mj\u001b[39ms\u001b[1m \u001b[0m"
    ],
    [
      0.810292,
      "\b\u001b[0m \b\u001b[?1l\u001b>"
    ],
    [
      6.2e-05,
      "\r\r\n"
    ],
    [
      0.001703,
      "\u001b]2;cat index.js\u0007\u001b]1;cat\u0007"
    ],
    [
      0.002151,
      "// set a timeout for 100 ms"
    ],
    [
      0.000248,
      "\r\n"
    ],
    [
      9.6e-05,
      "let timeoutScheduled = Date.now();"
    ],
    [
      0.000284,
      "\r\n"
    ],
    [
      0.000226,
      "setTimeout(() => {"
    ],
    [
      0.000185,
      "\r\n"
    ],
    [
      0.000186,
      "  let delay = Date.now() - timeoutScheduled;"
    ],
    [
      0.000184,
      "\r\n"
    ],
    [
      0.000186,
      "  console.log(`${delay} ms have passed since I was scheduled`);"
    ],
    [
      0.000222,
      "\r\n"
    ],
    [
      0.000185,
      "}, 100);"
    ],
    [
      0.000262,
      "\r\n"
    ],
    [
      0.000216,
      "\r\n"
    ],
    [
      0.000232,
      "// set another timeout of 95 ms"
    ],
    [
      0.000194,
      "\r\n"
    ],
    [
      0.000196,
      "setTimeout(() => {"
    ],
    [
      0.000221,
      "\r\n"
    ],
    [
      0.000189,
      "  let startCallback = Date.now()"
    ],
    [
      0.000221,
      "\r\n"
    ],
    [
      0.000191,
      "  // do something that will take 10ms..."
    ],
    [
      0.000187,
      "\r\n"
    ],
    [
      0.000225,
      "  while (Date.now() - startCallback < 10) {"
    ],
    [
      0.000375,
      "\r\n"
    ],
    [
      0.000371,
      "    ; // do nothing\r\n  }\r\n}, 95)\r\n"
    ],
    [
      0.000699,
      "\u001b[1m\u001b[7m%\u001b[27m\u001b[1m\u001b[0m                                                                                                                                                                                                                                            \r \r"
    ],
    [
      0.000631,
      "\u001b]2;christian@christian-VirtualBox: ~/nodejs-meetup/presentation/examples/event-loop-blocking\u0007\u001b]1;..loop-blocking\u0007"
    ],
    [
      0.080771,
      "\r\u001b[0m\u001b[27m\u001b[24m\u001b[J\u001b[39m\u001b[0m\u001b[49m\u001b[40m\u001b[39m christian@christian-VirtualBox \u001b[44m\u001b[30m\u001b[30m ~/nodejs-meetup/presentation/examples/event-loop-blocking \u001b[42m\u001b[34m\u001b[30m  christian \u001b[49m\u001b[32m\u001b[39m "
    ],
    [
      0.000151,
      "\u001b[K"
    ],
    [
      0.000224,
      "\u001b[?1h\u001b="
    ],
    [
      1.317791,
      "n\u001b[36mode index.js\u001b[39m\u001b[12D"
    ],
    [
      0.056102,
      "\bn\u001b[39mo"
    ],
    [
      0.036384,
      "\u001b[39md"
    ],
    [
      0.168667,
      "\u001b[39me"
    ],
    [
      0.150966,
      "\u001b[39m "
    ],
    [
      0.313091,
      "\u001b[39mi"
    ],
    [
      0.012089,
      "\u001b[39mn"
    ],
    [
      0.14028,
      "\u001b[39md\u001b[39me\u001b[39mx\u001b[39m.\u001b[39mj\u001b[39ms\u001b[1m \u001b[0m\u001b[36m| bunyan\u001b[39m\u001b[8D"
    ],
    [
      0.93616,
      "\b\u001b[0m \u001b[39m \u001b[39m \u001b[39m \u001b[39m \u001b[39m \u001b[39m \u001b[39m \u001b[39m \u001b[9D"
    ],
    [
      0.000158,
      "\u001b[?1l\u001b>"
    ],
    [
      0.000198,
      "\r"
    ],
    [
      8.6e-05,
      "\r\n"
    ],
    [
      0.001529,
      "\u001b]2;node index.js\u0007"
    ],
    [
      0.000139,
      "\u001b]1;node\u0007"
    ],
    [
      0.25243,
      "109 ms have passed since I was scheduled\r\n"
    ],
    [
      0.00231,
      "\u001b[1m\u001b[7m%\u001b[27m\u001b[1m\u001b[0m                                                                                                                                                                                                                                            \r \r"
    ],
    [
      0.000236,
      "\u001b]2;christian@christian-VirtualBox: ~/nodejs-meetup/presentation/examples/event-loop-blocking\u0007"
    ],
    [
      0.000138,
      "\u001b]1;..loop-blocking\u0007"
    ],
    [
      0.084499,
      "\r\u001b[0m\u001b[27m\u001b[24m\u001b[J\u001b[39m\u001b[0m\u001b[49m\u001b[40m\u001b[39m christian@christian-VirtualBox \u001b[44m\u001b[30m\u001b[30m ~/nodejs-meetup/presentation/examples/event-loop-blocking \u001b[42m\u001b[34m\u001b[30m  christian \u001b[49m\u001b[32m\u001b[39m \u001b[K\u001b[?1h\u001b="
    ],
    [
      2.442263,
      "\r\r\n"
    ]
  ],
  "command": null
}