{
  "stdout": [
    [
      1.50858,
      "\u001b[1m\u001b[7m%\u001b[27m\u001b[1m\u001b[0m                                                                                                                                                                                                                  \r \r"
    ],
    [
      8.8e-05,
      "\u001b]2;christian@christian-VirtualBox: ~\u0007\u001b]1;~\u0007"
    ],
    [
      0.074505,
      "\r\u001b[0m\u001b[27m\u001b[24m\u001b[J\u001b[39m\u001b[0m\u001b[49m\u001b[40m\u001b[39m christian@christian-VirtualBox \u001b[44m\u001b[30m\u001b[30m ~ \u001b[49m\u001b[34m\u001b[39m \u001b[K"
    ],
    [
      7.8e-05,
      "\u001b[?1h\u001b=\u001b[?2004h"
    ],
    [
      0.474082,
      "v\u001b[36mim add.js\u001b[39m\u001b[9D"
    ],
    [
      0.095253,
      "\bv\u001b[39mi"
    ],
    [
      0.141047,
      "\u001b[39mm"
    ],
    [
      0.146203,
      "\u001b[39m "
    ],
    [
      0.201353,
      "\u001b[39ma"
    ],
    [
      0.113095,
      "\u001b[39md"
    ],
    [
      0.208249,
      "\u001b[39md\u001b[39m.\u001b[39mj\u001b[39ms"
    ],
    [
      0.247647,
      "\u001b[?1l\u001b>\u001b[?2004l\r\r\n"
    ],
    [
      0.000783,
      "\u001b]2;vim add.js\u0007\u001b]1;vim\u0007"
    ],
    [
      0.039098,
      "\u001b[?1049h\u001b[?1h\u001b=\u001b[2;1H▽\u001b[6n\u001b[2;1H  \u001b[1;1H\u001b]11;?\u0007"
    ],
    [
      0.001008,
      "\u001b[1;48r\u001b[?12;25h\u001b[?12l\u001b[?25h\u001b[27m\u001b[23m\u001b[m\u001b[H\u001b[2J\u001b[?25l\u001b[48;1H\"add.js\" [New File]"
    ],
    [
      0.010974,
      "\u001b[>c\u001b[2;1H\u001b[94m~                                                                                                                                                                                                                  \u001b[3;1H~                                                                                                                                                                                                                  \u001b[4;1H~                                                                                                                                                                                                                  \u001b[5;1H~                                                                                                                                                                                                                  \u001b[6;1H~                                                                                                                                            "
    ],
    [
      3.8e-05,
      "                                                                      \u001b[7;1H~                                                                                                                                                                                                                  \u001b[8;1H~                                                                                                                                                                                                                  \u001b[9;1H~                                                                                                                                                                                                                  \u001b[10;1H~                                                                                                                                                                                                                  \u001b[11;1H~                                                                             "
    ],
    [
      4.6e-05,
      "                                                                                                                                     \u001b[12;1H~                                                                                                                                                                                                                  \u001b[13;1H~                                                                                                                                                                                                                  \u001b[14;1H~                                                                                                                                                                                                                  \u001b[15;1H~                                                                                                                                                                                                                  \u001b[16;1H~           "
    ],
    [
      2.7e-05,
      "                                                                                                                                                                                                       \u001b[17;1H~                                                                                                                                                                                                                  \u001b[18;1H~                                                                                                                                                                                                                  \u001b[19;1H~                                                                                                                                                                                                                  \u001b[20;1H~                                                                                                                                                                   "
    ],
    [
      2.7e-05,
      "                                               \u001b[21;1H~                                                                                                                                                                                                                  \u001b[22;1H~                                                                                                                                                                                                                  \u001b[23;1H~                                                                                                                                                                                                                  \u001b[24;1H~                                                                                                                                                                                                                  \u001b[25;1H~                                                                                                 "
    ],
    [
      2.6e-05,
      "                                                                                                                 \u001b[26;1H~                                                                                                                                                                                                                  \u001b[27;1H~                                                                                                                                                                                                                  \u001b[28;1H~                                                                                                                                                                                                                  \u001b[29;1H~                                                                                                                                                                                                                  \u001b[30;1H~                               "
    ],
    [
      1.9e-05,
      "                                                                                                                                                                                   \u001b[31;1H~                                                                                                                                                                                                                  \u001b[32;1H~                                                                                                                                                                                                                  \u001b[33;1H~                                                                                                                                                                                                                  \u001b[34;1H~                                                                                                                                                                                       "
    ],
    [
      2.1e-05,
      "                           \u001b[35;1H~                                                                                                                                                                                                                  \u001b[36;1H~                                                                                                                                                                                                                  \u001b[37;1H~                                                                                                                                                                                                                  \u001b[38;1H~                                                                                                                                                                                                                  \u001b[39;1H~                                                                                                                     "
    ],
    [
      2.6e-05,
      "                                                                                             \u001b[40;1H~                                                                                                                                                                                                                  \u001b[41;1H~                                                                                                                                                                                                                  \u001b[42;1H~                                                                                                                                                                                                                  \u001b[43;1H~                                                                                                                                                                                                                  \u001b[44;1H~                                                   "
    ],
    [
      2.2e-05,
      "                                                                                                                                                               \u001b[45;1H~                                                                                                                                                                                                                  \u001b[46;1H~                                                                                                                                                                                                                  \u001b[47;1H~                                                                                                                                                                                                                  \u001b[m\u001b[48;194H0,0-1\u001b[9CAll\u001b[1;1H\u001b[?12l\u001b[?25h"
    ],
    [
      0.0514,
      "\u001b[27m\u001b[23m\u001b[m\u001b[H\u001b[2J\u001b[?25l\u001b[2;1H\u001b[94m~                                                                                                                                                                                                                  \u001b[3;1H~                                                                                                                                                                                                                  \u001b[4;1H~                                                                                                                                                                                                                  \u001b[5;1H~                                                                                                                                                                                                                  \u001b[6;1H~                                                                                                                      "
    ],
    [
      4e-05,
      "                                                                                            \u001b[7;1H~                                                                                                                                                                                                                  \u001b[8;1H~                                                                                                                                                                                                                  \u001b[9;1H~                                                                                                                                                                                                                  \u001b[10;1H~                                                                                                                                                                                                                  \u001b[11;1H~                                                       "
    ],
    [
      6.8e-05,
      "                                                                                                                                                           \u001b[12;1H~                                                                                                                                                                                                                  \u001b[13;1H~                                                                                                                                                                                                                  \u001b[14;1H~                                                                                                                                                                                                                  \u001b[15;1H~                                                                                                                                                                                                               "
    ],
    [
      2.7e-05,
      "   \u001b[16;1H~                                                                                                                                                                                                                  \u001b[17;1H~                                                                                                                                                                                                                  \u001b[18;1H~                                                                                                                                                                                                                  \u001b[19;1H~                                                                                                                                                                                                                  \u001b[20;1H~                                                                                                                                             "
    ],
    [
      2.4e-05,
      "                                                                     \u001b[21;1H~                                                                                                                                                                                                                  \u001b[22;1H~                                                                                                                                                                                                                  \u001b[23;1H~                                                                                                                                                                                                                  \u001b[24;1H~                                                                                                                                                                                                                  \u001b[25;1H~                                                                           "
    ],
    [
      4.2e-05,
      "                                                                                                                                       \u001b[26;1H~                                                                                                                                                                                                                  \u001b[27;1H~                                                                                                                                                                                                                  \u001b[28;1H~                                                                                                                                                                                                                  \u001b[29;1H~                                                                                                                                                                                                                  \u001b[30;1H~         "
    ],
    [
      2.1e-05,
      "                                                                                                                                                                                                         \u001b[31;1H~                                                                                                                                                                                                                  \u001b[32;1H~                                                                                                                                                                                                                  \u001b[33;1H~                                                                                                                                                                                                                  \u001b[34;1H~                                                                                                                                                                 "
    ],
    [
      1.8e-05,
      "                                                 \u001b[35;1H~                                                                                                                                                                                                                  \u001b[36;1H~                                                                                                                                                                                                                  \u001b[37;1H~                                                                                                                                                                                                                  \u001b[38;1H~                                                                                                                                                                                                                  \u001b[39;1H~                                                                                               "
    ],
    [
      2e-05,
      "                                                                                                                   \u001b[40;1H~                                                                                                                                                                                                                  \u001b[41;1H~                                                                                                                                                                                                                  \u001b[42;1H~                                                                                                                                                                                                                  \u001b[43;1H~                                                                                                                                                                                                                  \u001b[44;1H~                             "
    ],
    [
      2e-05,
      "                                                                                                                                                                                     \u001b[45;1H~                                                                                                                                                                                                                  \u001b[46;1H~                                                                                                                                                                                                                  \u001b[47;1H~                                                                                                                                                                                                                  \u001b[m\u001b[48;194H0,0-1\u001b[9CAll\r\"add.js\" [New File]\u001b[1;1H\u001bP+q436f\u001b\\\u001bP+q6b75\u001b\\\u001bP+q6b64\u001b\\\u001bP+q6b72\u001b\\\u001bP+q6b6c\u001b\\\u001bP+q2332\u001b\\\u001bP+q2334\u001b\\\u001bP+q2569\u001b\\\u001bP+q2a37\u001b\\\u001bP+q6b31\u001b\\\u001b[?12l\u001b[?25h"
    ],
    [
      1.208634,
      "\u001b[?25l\u001b[48;1H\u001b[1m-- INSERT --\u001b[m\u001b[48;13H\u001b[K\u001b[48;194H0,1\u001b[11CAll\u001b[1;1H\u001b[?12l\u001b[?25h"
    ],
    [
      0.337226,
      "\u001b[?25lm\u001b[48;194H1,2\u001b[1;2H\u001b[?12l\u001b[?25h"
    ],
    [
      0.087579,
      "\u001b[?25lo\u001b[48;196H3\u001b[1;3H\u001b[?12l\u001b[?25h"
    ],
    [
      0.060541,
      "\u001b[?25ld\u001b[48;196H4\u001b[1;4H\u001b[?12l\u001b[?25h"
    ],
    [
      0.267436,
      "\u001b[?25lu\u001b[48;196H5\u001b[1;5H\u001b[?12l\u001b[?25h"
    ],
    [
      0.264168,
      "\u001b[?25ll\u001b[48;196H6\u001b[1;6H\u001b[?12l\u001b[?25h"
    ],
    [
      0.087802,
      "\u001b[?25le\u001b[48;196H7\u001b[1;7H\u001b[?12l\u001b[?25h"
    ],
    [
      0.273476,
      "\u001b[?25l.\u001b[48;196H8\u001b[1;8H\u001b[?12l\u001b[?25h"
    ],
    [
      0.086977,
      "\u001b[?25le\u001b[48;196H9\u001b[1;9H\u001b[?12l\u001b[?25h"
    ],
    [
      0.144313,
      "\u001b[?25lx\u001b[48;196H10\u001b[1;10H\u001b[?12l\u001b[?25h"
    ],
    [
      0.184215,
      "\u001b[?25lp\u001b[48;197H1\u001b[1;11H\u001b[?12l\u001b[?25h"
    ],
    [
      0.038286,
      "\u001b[?25lo\u001b[48;197H2\u001b[1;12H\u001b[?12l\u001b[?25h"
    ],
    [
      0.089249,
      "\u001b[?25lr\u001b[48;197H3\u001b[1;13H\u001b[?12l\u001b[?25h"
    ],
    [
      0.21654,
      "\u001b[?25l\b\b\b\b\b\u001b[93mexport\u001b[m\u001b[48;197H4\u001b[1;14H\u001b[?12l\u001b[?25h"
    ],
    [
      0.150898,
      "\u001b[?25l\b\b\b\b\b\bexports\u001b[48;197H5\u001b[1;15H\u001b[?12l\u001b[?25h"
    ],
    [
      0.258245,
      "\u001b[?25l\u001b[48;197H6\u001b[1;16H\u001b[?12l\u001b[?25h"
    ],
    [
      0.150756,
      "\u001b[?25l=\u001b[48;197H7\u001b[1;17H\u001b[?12l\u001b[?25h"
    ],
    [
      0.056073,
      "\u001b[?25l\u001b[48;197H8\u001b[1;18H\u001b[?12l\u001b[?25h"
    ],
    [
      0.489914,
      "\u001b[?25l(\u001b[48;197H9\u001b[1;19H\u001b[?12l\u001b[?25h"
    ],
    [
      1.238529,
      "\u001b[?25la\u001b[48;196H20\u001b[1;20H\u001b[?12l\u001b[?25h"
    ],
    [
      0.296385,
      "\u001b[?25l,\u001b[48;197H1\u001b[1;21H\u001b[?12l\u001b[?25h"
    ],
    [
      0.183941,
      "\u001b[?25l\u001b[48;197H2\u001b[1;22H\u001b[?12l\u001b[?25h"
    ],
    [
      0.112008,
      "\u001b[?25lb\u001b[48;197H3\u001b[1;23H\u001b[?12l\u001b[?25h"
    ],
    [
      0.561161,
      "\u001b[?25l)\b\b\b\b\b\b\u001b[46m(\u001b[ma, b\u001b[46m)\u001b[m\u001b[48;197H4\u001b[1;24H\u001b[?12l\u001b[?25h"
    ],
    [
      0.936977,
      "\u001b[?25l\b\b\b\b\b\b(a, b)\u001b[48;197H5\u001b[1;25H\u001b[?12l\u001b[?25h"
    ],
    [
      0.169829,
      "\u001b[?25l=\u001b[48;197H6\u001b[1;26H\u001b[?12l\u001b[?25h"
    ],
    [
      0.142986,
      "\u001b[?25l>\u001b[48;197H7\u001b[1;27H\u001b[?12l\u001b[?25h"
    ],
    [
      0.710779,
      "\u001b[?25l\u001b[48;197H8\u001b[1;28H\u001b[?12l\u001b[?25h"
    ],
    [
      0.337745,
      "\u001b[?25l\u001b[1m\u001b[96m{\u001b[m\u001b[48;197H9\u001b[1;29H\u001b[?12l\u001b[?25h"
    ],
    [
      0.328197,
      "\u001b[?25l\u001b[2;1H\u001b[K\u001b[48;194H2,1 \u001b[2;1H\u001b[?12l\u001b[?25h"
    ],
    [
      1.062608,
      "\u001b[?25l\u001b[48;196H2\u001b[2;2H\u001b[?12l\u001b[?25h"
    ],
    [
      0.145357,
      "\u001b[?25l\u001b[48;196H3\u001b[2;3H\u001b[?12l\u001b[?25h"
    ],
    [
      0.216646,
      "\u001b[?25lr\u001b[48;196H4\u001b[2;4H\u001b[?12l\u001b[?25h"
    ],
    [
      0.151992,
      "\u001b[?25le\u001b[48;196H5\u001b[2;5H\u001b[?12l\u001b[?25h"
    ],
    [
      0.184194,
      "\u001b[?25lt\u001b[48;196H6\u001b[2;6H\u001b[?12l\u001b[?25h"
    ],
    [
      0.176006,
      "\u001b[?25lu\u001b[48;196H7\u001b[2;7H\u001b[?12l\u001b[?25h"
    ],
    [
      0.088051,
      "\u001b[?25lr\u001b[48;196H8\u001b[2;8H\u001b[?12l\u001b[?25h"
    ],
    [
      0.095796,
      "\u001b[?25l\r  \u001b[93mreturn\u001b[m\u001b[48;196H9\u001b[2;9H\u001b[?12l\u001b[?25h"
    ],
    [
      0.384158,
      "\u001b[?25l\u001b[48;196H10\u001b[2;10H\u001b[?12l\u001b[?25h"
    ],
    [
      0.536381,
      "\u001b[?25la\u001b[48;197H1\u001b[2;11H\u001b[?12l\u001b[?25h"
    ],
    [
      0.183801,
      "\u001b[?25l\u001b[48;197H2\u001b[2;12H\u001b[?12l\u001b[?25h"
    ],
    [
      0.160638,
      "\u001b[?25l+\u001b[48;197H3\u001b[2;13H\u001b[?12l\u001b[?25h"
    ],
    [
      0.103931,
      "\u001b[?25l\u001b[48;197H4\u001b[2;14H\u001b[?12l\u001b[?25h"
    ],
    [
      0.335907,
      "\u001b[?25lb\u001b[48;197H5\u001b[2;15H\u001b[?12l\u001b[?25h"
    ],
    [
      0.552483,
      "\u001b[?25l\u001b[3;1H\u001b[K\u001b[48;194H3,1 \u001b[3;1H\u001b[?12l\u001b[?25h"
    ],
    [
      1.017533,
      "\u001b[?25l\u001b[1m\u001b[96m}\u001b[m\u001b[1;28H\u001b[1m\u001b[96m\u001b[46m{\r\n\r\n}\u001b[m\u001b[48;196H2\u001b[3;2H\u001b[?12l\u001b[?25h"
    ],
    [
      0.99992,
      "\u001b[48;1H\u001b[K\u001b[3;1H"
    ],
    [
      0.680153,
      "\u001b[?25l"
    ],
    [
      7.6e-05,
      "\u001b[48;194H3,1\u001b[11CAll\u001b[3;1H\u001b[?12l\u001b[?25h\u001b[?25l\u001b[48;194H\u001b[K\u001b[48;1H:"
    ],
    [
      0.000113,
      "\u001b[?12l\u001b[?25h"
    ],
    [
      0.238996,
      "w\u001b[?25l\u001b[?12l\u001b[?25h"
    ],
    [
      0.063974,
      "q\u001b[?25l\u001b[?12l\u001b[?25h"
    ],
    [
      0.463913,
      "\r\u001b[?25l\"add.js\""
    ],
    [
      0.010474,
      " [New] 3L, 46C written"
    ],
    [
      0.001468,
      "\r\r"
    ],
    [
      0.000102,
      "\r\n"
    ],
    [
      0.000101,
      "\u001b[?1l\u001b>"
    ],
    [
      0.000127,
      "\u001b[?12l\u001b[?25h\u001b[?1049l"
    ],
    [
      0.001558,
      "\u001b[1m\u001b[7m%\u001b[27m\u001b[1m\u001b[0m                                                                                                                                                                                                                  \r \r"
    ],
    [
      0.000251,
      "\u001b]2;christian@christian-VirtualBox: ~\u0007\u001b]1;~\u0007"
    ],
    [
      0.064862,
      "\r\u001b[0m\u001b[27m\u001b[24m\u001b[J\u001b[39m\u001b[0m\u001b[49m\u001b[40m\u001b[39m christian@christian-VirtualBox \u001b[44m\u001b[30m\u001b[30m ~ \u001b[49m\u001b[34m\u001b[39m \u001b[K\u001b[?1h\u001b=\u001b[?2004h"
    ],
    [
      1.423311,
      "n\u001b[36mode\u001b[39m\b\b\b"
    ],
    [
      0.062702,
      "\bn\u001b[39mo"
    ],
    [
      0.035135,
      "\u001b[39md"
    ],
    [
      0.150238,
      "\u001b[39me"
    ],
    [
      0.195557,
      "\u001b[?1l\u001b>\u001b[?2004l\r\r\n"
    ],
    [
      0.001713,
      "\u001b]2;node\u0007\u001b]1;node\u0007"
    ],
    [
      0.122528,
      "\u001b[1G"
    ],
    [
      0.000704,
      "\u001b[0J"
    ],
    [
      0.000154,
      "> "
    ],
    [
      0.000103,
      "\u001b[3G"
    ],
    [
      1.889614,
      "l"
    ],
    [
      0.067978,
      "e"
    ],
    [
      0.076494,
      "t"
    ],
    [
      0.193118,
      " "
    ],
    [
      0.112325,
      "a"
    ],
    [
      0.215661,
      "d"
    ],
    [
      0.216603,
      " "
    ],
    [
      0.618432,
      "\u001b[1G\u001b[0J> let ad\u001b[9G"
    ],
    [
      0.110441,
      "d"
    ],
    [
      0.174945,
      " "
    ],
    [
      0.192267,
      "="
    ],
    [
      0.088452,
      " "
    ],
    [
      0.152578,
      "r"
    ],
    [
      0.104394,
      "e"
    ],
    [
      0.039273,
      "q"
    ],
    [
      0.21586,
      "u"
    ],
    [
      0.072325,
      "i"
    ],
    [
      0.143477,
      "r"
    ],
    [
      0.007717,
      "e"
    ],
    [
      0.472417,
      "("
    ],
    [
      0.552851,
      "'"
    ],
    [
      0.90385,
      "."
    ],
    [
      0.280308,
      "/"
    ],
    [
      0.285243,
      "a"
    ],
    [
      0.075458,
      "d"
    ],
    [
      0.151887,
      "d"
    ],
    [
      0.97038,
      "."
    ],
    [
      0.214597,
      "j"
    ],
    [
      0.08812,
      "s"
    ],
    [
      0.704458,
      "'"
    ],
    [
      0.344058,
      ")"
    ],
    [
      1.390608,
      "\r\r\n"
    ],
    [
      0.018997,
      "\u001b[90mundefined\u001b[39m\r\n"
    ],
    [
      4e-05,
      "\u001b[1G\u001b[0J"
    ],
    [
      0.000101,
      "> "
    ],
    [
      2.8e-05,
      "\u001b[3G"
    ],
    [
      0.94354,
      "a"
    ],
    [
      0.079202,
      "d"
    ],
    [
      0.151583,
      "d"
    ],
    [
      0.417233,
      "("
    ],
    [
      0.288472,
      "1"
    ],
    [
      0.343389,
      ","
    ],
    [
      0.103465,
      "1"
    ],
    [
      0.78564,
      ")"
    ],
    [
      0.53592,
      "\r"
    ],
    [
      0.000105,
      "\r\n"
    ],
    [
      0.003071,
      "\u001b[33m2\u001b[39m"
    ],
    [
      0.000114,
      "\r\n"
    ],
    [
      0.000459,
      "\u001b[1G"
    ],
    [
      0.000171,
      "\u001b[0J"
    ],
    [
      0.000186,
      "> "
    ],
    [
      0.000227,
      "\u001b[3G"
    ],
    [
      2.260772,
      "\r"
    ],
    [
      0.000112,
      "\r\n"
    ],
    [
      0.000366,
      "(To exit, press ^C again or type .exit)"
    ],
    [
      9.7e-05,
      "\r\n"
    ],
    [
      0.000239,
      "\u001b[1G"
    ],
    [
      0.000186,
      "\u001b[0J"
    ],
    [
      0.000148,
      "> "
    ],
    [
      0.000143,
      "\u001b[3G"
    ],
    [
      0.702351,
      "\r"
    ],
    [
      0.0001,
      "\r\n"
    ],
    [
      0.005988,
      "\u001b[1m\u001b[7m%\u001b[27m\u001b[1m\u001b[0m                                                                                                                                                                                                                  \r \r"
    ],
    [
      0.000159,
      "\u001b]2;christian@christian-VirtualBox: ~\u0007\u001b]1;~\u0007"
    ],
    [
      0.049019,
      "\r\u001b[0m\u001b[27m\u001b[24m\u001b[J\u001b[39m\u001b[0m\u001b[49m\u001b[40m\u001b[39m christian@christian-VirtualBox \u001b[44m\u001b[30m\u001b[30m ~ \u001b[49m\u001b[34m\u001b[39m \u001b[K"
    ],
    [
      0.000232,
      "\u001b[?1h\u001b=\u001b[?2004h"
    ],
    [
      0.849306,
      "\u001b[?2004l\r\r\n"
    ]
  ],
  "width": 211,
  "version": 1,
  "duration": 41.395683,
  "height": 48,
  "env": {
    "SHELL": "/usr/bin/zsh",
    "TERM": "xterm-256color"
  },
  "command": null,
  "title": "Modules"
}